[gd_scene load_steps=3 format=2]

[ext_resource path="res://assets/foodfromcts1a.png" type="Texture" id=1]

[sub_resource type="RectangleShape2D" id=1]
extents = Vector2( 14.2072, 23.2294 )

[node name="food_item" type="Area2D"]

[node name="CollisionShape2D" type="CollisionShape2D" parent="."]
position = Vector2( 0.552078, -1.47221 )
shape = SubResource( 1 )

[node name="Sprite" type="Sprite" parent="."]
position = Vector2( 4.81062, -3.57611 )
scale = Vector2( 2.26577, 2.26577 )
texture = ExtResource( 1 )
region_enabled = true
region_rect = Rect2( 177, 105.5, 24, 25.5 )
region_filter_clip = true
